ano;adocao;IDH;edi;pais;pic_pc
2000;0;0,684;0,571;Brasil;3739,116139
2001;0;0,739;0,568;Brasil;3146,948904
2002;0;0,739;0,608;Brasil;2819,65
2003;1;0,739;0,62;Brasil;3059,586507
2004;1;0,739;0,628;Brasil;3623,049912
2005;1;0,739;0,654;Brasil;4770,183845
2006;1;0,739;0,652;Brasil;5860,145829
2007;1;0,739;0,648;Brasil;7313,557773
2008;1;0,739;0,626;Brasil;8787,610658
2009;1;0,739;0,626;Brasil;8553,381368
2010;1;0,727;0,636;Brasil;11224,15408
2011;1;0,739;0,634;Brasil;13167,47289
2012;1;0,736;0,631;Brasil;12291,46685
2013;1;0,739;0,657;Brasil;12216,90446
2014;1;0,752;0,65;Brasil;12026,61939
2015;1;0,757;0,645;Brasil;8750,222996
2016;1;0,758;0,525;Brasil;8639,365743
2017;1;0,759;0,477;Brasil;9821,407686
2000;0;0,493;0,509;India;438,8646304
2001;0;0,599;0,503;India;447,0138966
2002;0;0,599;0,514;India;466,2008042
2003;0;0,599;0,503;India;541,1352279
2004;0;0,599;0,514;India;621,3183767
2005;0;0,599;0,514;India;707,008019
2006;1;0,599;0,497;India;792,0259698
2007;1;0,599;0,497;India;1018,166373
2008;1;0,599;0,497;India;991,4846304
2009;1;0,599;0,478;India;1090,317765
2010;1;0,581;0,449;India;1345,770153
2011;1;0,599;0,452;India;1461,671957
2012;1;0,6;0,413;India;1446,98541
2013;1;0,599;0,441;India;1452,195373
2014;1;0,618;0,434;India;1576,004018
2015;1;0,627;0,373;India;1606,038285
2016;1;0,636;0,377;India;1717,473878
2017;1;0,64;0,362;India;1939,612984
2000;1;0,63;0,514;Africa do Sul;2982,000426
2001;1;0,673;0,514;Africa do Sul;2621,554437
2002;1;0,673;0,514;Africa do Sul;2461,355087
2003;1;0,673;0,525;Africa do Sul;3678,102817
2004;1;0,673;0,542;Africa do Sul;4745,071685
2005;1;0,673;0,567;Africa do Sul;5277,925459
2006;1;0,673;0,561;Africa do Sul;5506,196503
2007;1;0,673;0,55;Africa do Sul;5994,195403
2008;1;0,673;0,552;Africa do Sul;5695,05786
2009;1;0,673;0,534;Africa do Sul;5831,115574
2010;1;0,649;0,556;Africa do Sul;7275,382112
2011;1;0,673;0,545;Africa do Sul;7976,466077
2012;1;0,664;0,544;Africa do Sul;7478,227665
2013;1;0,673;0,536;Africa do Sul;6822,52476
2014;1;0,685;0,52;Africa do Sul;6433,944544
2015;1;0,692;0,495;Africa do Sul;5746,681127
2016;1;0,696;0,484;Africa do Sul;5280,017633
2017;1;0,699;0,484;Africa do Sul;6160,734569
